iso2,cname,iso3,ccont,popdata,rsquared,progress,final,start,peak,floor,beta,mu,maxcur
AD,Andorra,AND,Europe,76177.0,0.9553270854905274,1.1448453590509107,637.1415717082314,2020-03-18,2020-03-31,2020-05-15,6.149978456028484,91.1561258322395,439.68460965781736
AE,United_Arab_Emirates,ARE,Asia,9770526.0,0.9942673474053231,0.6619860644707072,48966.2875605214,2020-03-22,2020-05-12,2020-09-25,25.83277738469197,132.8965212458275,9642.257984595597
AF,Afghanistan,AFG,Asia,38041757.0,0.994937228780493,0.1750309174972516,74902.57870822455,2020-04-18,2020-06-25,2020-11-27,39.70623759306557,176.92097916320702,9664.442636826378
AG,Antigua_and_Barbuda,ATG,America,97115.0,0.9834651695346388,0.9902050949716843,23.660322035851962,2020-03-23,2020-04-05,2020-05-02,7.927176819126236,95.5263516247232,13.60460830084915
AI,Anguilla,AIA,America,14872.0,0.9993186643516646,0.6196294741761378,2.074972768885433,2020-03-29,2020-04-05,2020-04-22,5.028065269052155,96.35365354256963,1.6139090792173025
AL,Albania,ALB,Europe,2862427.0,0.9935612000129025,0.9059445900368777,1171.941747196714,2020-03-14,2020-04-16,2020-06-20,22.738032071647435,107.2860873223023,261.26441689598187
AM,Armenia,ARM,Europe,2957728.0,0.9700868195026239,0.25242216143820023,33758.85907832692,2020-03-08,2020-06-25,2021-04-15,54.98835971200751,177.43980990373615,3153.4599608231715
AR,Argentina,ARG,America,44780675.0,0.9686625022912673,0.30709236760139624,47706.688338271946,2020-04-01,2020-06-17,2020-11-17,51.011048201914285,169.28432358613986,4801.508056931092
AT,Austria,AUT,Europe,8858775.0,0.9917017968706945,1.0448960753196077,15844.091065577673,2020-03-09,2020-03-28,2020-05-19,9.831589192441532,88.28993144290114,7645.327838253133
AU,Australia,AUS,Oceania,25203200.0,0.9988743144987526,1.0851643809206812,6594.524279419679,2020-03-17,2020-03-28,2020-04-23,6.879918776981988,88.20881284290017,4213.195846322798
AW,Aruba,ABW,America,106310.0,0.9722881695828555,1.0029268515466114,48.85700280577511,2020-03-28,2020-04-08,2020-05-05,6.144470015034113,99.01211097535345,33.7241799433614
AZ,Azerbaijan,AZE,Europe,10047719.0,0.959723684405976,0.6615572867044661,7246.753831273946,2020-03-26,2020-05-13,2020-08-19,31.603385417372248,133.76025747079348,1171.1367845431125
BA,Bosnia_and_Herzegovina,BIH,Europe,3300998.0,0.9963810626197684,0.9132160956560499,2657.6404112286546,2020-03-17,2020-04-18,2020-06-27,18.79654007170495,108.60717522546265,711.3503715094124
BB,Barbados,BRB,America,287021.0,0.9883813210543565,1.1398905149608143,75.571167592195,2020-03-19,2020-04-02,2020-05-02,8.698230372880795,93.01677756902234,40.334738035101346
BD,Bangladesh,BGD,Asia,163046173.0,0.990178721453384,0.4484377430601744,90943.34540378104,2020-04-20,2020-05-29,2020-08-15,25.61081811840382,149.89940944352523,18059.60368886603
BE,Belgium,BEL,Europe,11455519.0,0.9990290859943278,0.9709258904384067,60419.64744962318,2020-03-06,2020-04-07,2020-07-09,15.995626633618981,98.23906512635475,18843.35745781746
BF,Burkina_Faso,BFA,Africa,20321383.0,0.9663573521001378,0.9599085811235545,870.9162689445677,,2020-04-19,2020-04-20,15.967309345964477,110.4077580969232,272.0103352188118
BG,Bulgaria,BGR,Europe,7000039.0,0.9933058976224907,0.723665437874726,3384.3579193418427,2020-03-19,2020-04-29,2020-07-16,27.912491838082065,119.71563812368035,617.8093625953147
BH,Bahrain,BHR,Asia,1641164.0,0.9951035697775116,0.12361119611120985,81641.8438477123,2020-02-27,2020-07-22,2021-10-11,67.46315501441777,203.77638922429975,6224.6626477168975
BJ,Benin,BEN,Africa,11801151.0,0.9966811411614801,0.9139328314504441,234.15287495512592,2020-05-09,2020-05-11,2020-05-16,1.8873631636301886,132.0646826929271,232.50299007774908
BM,Bermuda,BMU,America,62508.0,0.9737348980238841,0.9560546220382827,141.50416845147268,2020-03-13,2020-04-15,2020-07-09,17.424224179653844,105.56228113269759,40.70405957290688
BN,Brunei_Darussalam,BRN,Asia,433296.0,0.9974451098935072,1.0019850542308626,109.63950249883787,2020-03-14,2020-03-23,2020-04-14,5.784515031199784,83.08554299229503,78.69382210299219
BO,Bolivia,BOL,America,11513102.0,0.9958929482479337,0.09148106704852242,90814.11625863356,2020-04-10,2020-07-18,2021-04-01,51.0891807385456,199.71623222886984,9126.169095342704
BQ,"Bonaire, Saint Eustatius and Saba",BES,America,25983.0,0.88633175201655,1.2333365442556403,4.285703128098252,2020-04-09,2020-04-16,2020-05-03,4.490099916543077,107.3367873434138,3.5255285275860073
BR,Brazil,BRA,America,211049519.0,0.9946819682741445,0.17524284257086487,2522702.377708422,2020-03-27,2020-06-29,2021-03-15,46.60195879219918,181.0524098096058,277740.2813742776
BS,Bahamas,BHS,America,389486.0,0.9966420935841966,0.9838778002005816,99.1702715027586,2020-03-25,2020-04-14,2020-05-24,13.766993124032277,104.89115651093003,35.55252468766966
BT,Bhutan,BTN,Asia,763094.0,0.9103387591139811,0.9966476446695046,31.964298543751553,2020-05-15,2020-05-23,2020-06-03,10.185836389788726,143.50832800355488,14.974072039934747
BY,Belarus,BLR,Europe,9452409.0,0.9963291424730735,0.7399683032835561,53809.061581834394,2020-03-31,2020-05-10,2020-08-31,19.980881456455506,131.01065472810998,13588.282114986676
BZ,Belize,BLZ,America,390351.0,0.9975790437833785,0.7868869914625409,21.0594770929282,2020-04-07,2020-04-14,2020-04-26,5.7059511923187225,104.62041104746778,15.210609470462725
CA,Canada,CAN,America,37411038.0,0.9976334153145605,0.8630474297450296,102438.83288622883,2020-03-16,2020-04-24,2020-08-04,20.787336637085957,115.38895997658645,24901.34030912738
CD,Democratic_Republic_of_the_Congo,COD,Africa,86790568.0,0.9978083841892026,1.499994473977962,1824.19719655975,2020-05-24,2020-05-27,2020-06-02,5.281210857995358,148.42812709677133,1380.536612411202
CF,Central_African_Republic,CAF,Africa,4745179.0,0.9969074514667002,0.1971978832667939,4072.0518176756423,2020-05-03,2020-06-15,2020-09-15,26.559497930200276,166.98623969796037,780.4520602219509
CG,Congo,COG,Africa,5380504.0,0.9569888497516772,0.6332414614902432,905.7704855399141,2020-04-22,2020-05-22,2020-07-06,29.566325791766975,142.7210764043783,156.27817936892558
CH,Switzerland,CHE,Europe,8544527.0,0.9693106337890569,1.0433691746870126,29440.065786945946,2020-03-09,2020-03-28,2020-05-22,9.168478855007056,88.14861260540131,15052.294900437992
CI,Cote_dIvoire,CIV,Africa,25716554.0,0.9876487713833404,0.8384726577175439,3142.618874611099,2020-04-14,2020-05-06,2020-06-08,22.35124767949379,126.891810949928,712.3015406227937
CL,Chile,CHL,America,18952035.0,0.9751843625003246,0.24021655048595883,360519.5767213613,2020-03-15,2020-06-25,2021-04-12,48.83088377151904,176.68180949221835,37892.84612710196
CM,Cameroon,CMR,Africa,25876387.0,0.9660971141948507,0.35811022039691875,15282.16336761579,2020-04-10,2020-06-08,2020-09-26,43.14781924055941,160.02333292077182,1816.0275622474808
CN,China,CHN,Asia,1433783692.0,0.9965789253706965,0.8567004644732462,98148.49020136487,2020-02-03,2020-02-12,2020-03-01,8.616987360339333,43.43091772345897,52833.73940033027
CO,Colombia,COL,America,50339443.0,0.988272852026595,0.31288079574242394,81469.85525223277,2020-04-01,2020-06-11,2020-11-14,43.05035181856912,163.4523580482484,9703.199179604298
CR,Costa_Rica,CRI,America,5047561.0,0.9421289911824658,0.9688186775635701,1019.9461261640749,2020-03-14,2020-04-11,2020-05-29,23.67225158851299,101.99072130769774,218.6719582559645
CU,Cuba,CUB,America,11333484.0,0.9954290246624931,1.0346152416026655,1908.6460418419551,2020-03-31,2020-04-17,2020-05-19,12.323868841735875,108.00749359475762,756.5345992321343
CV,Cape_Verde,CPV,Africa,549936.0,0.9815898807634628,0.7269810939511238,550.8101582837867,2020-04-07,2020-05-10,2020-07-26,19.2459249138668,131.433538115713,144.15583367417847
CW,CuraÃ§ao,CUW,America,163423.0,0.8837603644731021,0.8667995825926963,9.064543858928927,,2020-04-25,2020-04-26,30.38705289566714,115.50884733323912,1.5226288798701708
CY,Cyprus,CYP,Europe,875899.0,0.9940113947620275,0.9899212821037374,919.9865708300315,2020-03-14,2020-04-07,2020-06-03,12.898641147797232,97.5677229344664,349.91474834997456
CZ,Czechia,CZE,Europe,10649800.0,0.9825439352899668,0.9776331567731931,9348.963953948169,2020-03-09,2020-04-07,2020-06-13,17.04810064843612,97.85675672501041,2746.155751697839
DE,Germany,DEU,Europe,83019213.0,0.9969825685939573,0.986123352087723,182972.4731590959,2020-03-08,2020-04-05,2020-06-17,14.518268399949195,95.73989227601196,62457.579718965426
DJ,Djibouti,DJI,Africa,973557.0,0.943819074175877,0.6812334748750525,4194.2826036107635,2020-03-24,2020-05-15,2020-09-29,27.032293201304594,135.9769680367604,790.1340229275659
DK,Denmark,DNK,Europe,5806081.0,0.9970999964176243,0.9353419048219948,12325.821267519117,2020-03-04,2020-04-10,2020-07-11,19.626428730349975,100.84097596516021,3166.2873204182297
DM,Dominica,DMA,America,71808.0,0.9878069617842682,0.9418184797759623,11.982897477652918,2020-03-23,2020-04-01,2020-04-20,5.529332938007247,91.57584076528576,8.82181955089308
DO,Dominican_Republic,DOM,America,10738957.0,0.9912129273147037,0.703482762387391,22900.754029570613,2020-03-19,2020-05-07,2020-09-03,27.36277282278103,127.95020843956044,4263.1309724272205
DZ,Algeria,DZA,Africa,43053054.0,0.9873623538001947,0.6796544498773588,13163.201622448261,2020-04-02,2020-05-09,2020-07-13,28.700324655651244,129.80271334775665,2338.4078245913815
EC,Ecuador,ECU,America,17373657.0,0.9835827365921397,0.7815740870057543,48820.159295047415,2020-03-19,2020-04-29,2020-08-14,21.87549385953835,120.11440629523793,11298.704822907199
EE,Estonia,EST,Europe,1324820.0,0.9885272924952814,0.9870160167698393,1811.3760187075568,2020-03-06,2020-04-03,2020-06-11,15.262801542617847,93.78803553261676,590.2726580878989
EG,Egypt,EGY,Africa,100388076.0,0.9896329210407435,0.36802850447169305,57175.29716723393,2020-04-16,2020-06-06,2020-09-11,35.6409438316825,157.6210261881762,8208.204655489542
EL,Greece,GRC,Europe,10724599.0,0.99499299546402,0.9982991303370138,2866.1606800356312,2020-03-11,2020-04-02,2020-05-15,15.034103636452624,92.72840291574136,947.1715813924385
ES,Spain,ESP,Europe,46937060.0,0.9954005487633868,0.9904100529602315,240563.13053873018,2020-03-04,2020-04-02,2020-06-25,14.173055968420526,93.0747530895615,83963.33648847326
FI,Finland,FIN,Europe,5517919.0,0.9988919327935313,0.9126122339499195,7193.635758733471,2020-03-12,2020-04-15,2020-07-07,19.50687299819418,106.47203595137888,1858.529979489545
FJ,Fiji,FJI,Oceania,889955.0,0.9997526699972624,1.3153862814158712,11.946517868021992,2020-04-05,2020-04-07,2020-04-11,3.1599443372224147,97.84697318516488,11.12850329363869
FK,Falkland_Islands_(Malvinas),FLK,America,3372.0,0.9924496057504043,0.9644613627314936,11.109087547002723,2020-04-04,2020-04-15,2020-05-20,5.259960194838963,106.20583173965808,8.437171588035477
FO,Faroe_Islands,FRO,Europe,48677.0,0.9600171420342588,1.145134949427004,161.4282604418288,2020-03-13,2020-03-22,2020-04-20,4.240474813827348,82.11671407991989,136.40748387130458
FR,France,FRA,Europe,67012883.0,0.9969281133832133,0.9852179108018296,150592.93534575237,2020-03-07,2020-04-06,2020-06-21,15.268389952551173,96.56698741221274,49044.725197595544
GA,Gabon,GAB,Africa,2172578.0,0.9922045884402096,0.12178967424900487,19981.710584468878,2020-04-12,2020-07-01,2021-02-07,40.5676409704563,183.4224464686905,2524.084902799433
GD,Grenada,GRD,America,112002.0,0.9724458153100245,0.9574185491367074,21.33713770951227,2020-03-17,2020-04-09,2020-05-20,18.26054477441238,99.71131113528143,5.871486920821942
GE,Georgia,GEO,Europe,3996762.0,0.9980950188509122,0.9614426436986222,759.4242484752217,2020-03-28,2020-04-19,2020-05-29,17.310813381506033,110.05995943582279,219.87842808072872
GG,Guernsey,GGY,Europe,64468.0,0.9968889306917573,0.9915964292859256,245.0593737766791,2020-03-22,2020-04-05,2020-05-19,6.861988377998828,96.17937688367702,156.84882278598016
GH,Ghana,GHA,Africa,30417858.0,0.9927529792028578,0.6485958253748209,11442.080605425668,2020-04-16,2020-05-16,2020-07-14,20.41314877274202,136.91795028222006,2830.575665258276
GI,Gibraltar,GIB,Europe,33706.0,0.9910467801665207,1.178347093095279,126.08460566670684,2020-03-20,2020-04-02,2020-05-10,5.871591667477534,92.70558970433304,89.48059175400635
GL,Greenland,GRL,America,56660.0,0.6587849457899766,0.9841449515121727,10.451421592087907,2020-02-16,2020-03-16,2020-05-03,27.239219202036143,76.11026578972937,1.9543025926678876
GN,Guinea,GIN,Africa,12771246.0,0.9982251045385517,0.7216025317029512,4900.9964255785935,2020-04-08,2020-05-10,2020-07-10,21.532814735182114,130.62342066164337,1151.3979997559059
GQ,Equatorial_Guinea,GNQ,Africa,1355982.0,0.9804898538883661,0.601140431610847,1857.4219431161837,2020-04-12,2020-05-20,2020-08-17,21.45954805345944,140.53678766526923,437.83230288227435
GT,Guatemala,GTM,America,17581476.0,0.9834398341313065,0.11088495721710014,39434.6151441424,2020-04-26,2020-07-05,2020-12-13,39.95261953437549,186.90261333252505,5057.052943898388
GU,Guam,GUM,Oceania,167295.0,0.9751885616205243,1.1182044986063542,140.27590038551787,2020-03-14,2020-04-02,2020-05-19,10.778983116232208,93.10820932808704,62.563573104237236
GW,Guinea_Bissau,GNB,Africa,1920917.0,0.9413821708943333,0.15678062646325466,7761.522172332774,2020-04-11,2020-06-21,2020-12-15,37.95477522360451,172.82326387218956,1047.1096290450396
GY,Guyana,GUY,America,782775.0,0.9745985114634031,0.8534320086915175,166.05222708997684,2020-03-30,2020-04-27,2020-06-15,23.2520349584641,118.45462075321589,36.22272788264692
HN,Honduras,HND,America,9746115.0,0.9677210045943929,0.09616492963091794,49122.60480870941,2020-04-05,2020-07-27,2021-04-28,62.611931063048964,209.48627955695304,4033.50668376694
HR,Croatia,HRV,Europe,4076246.0,0.9958997747882853,0.9933707736813331,2239.2732203959067,2020-03-16,2020-04-05,2020-05-20,11.88049069720317,95.64249758553177,917.143438569054
HT,Haiti,HTI,America,11263079.0,0.9976983072056035,0.3761937364095189,4007.433624387379,2020-05-13,2020-06-02,2020-07-16,13.433831963621945,154.37758343254555,1468.3404825956432
HU,Hungary,HUN,Europe,9772756.0,0.9987541713366711,0.9346420806981448,4088.654523851626,2020-03-22,2020-04-18,2020-06-12,17.574114226553977,108.51369279357613,1166.5756861506945
ID,Indonesia,IDN,Asia,270625567.0,0.9856624434016136,0.6955160209878558,35117.605348977566,2020-04-23,2020-05-16,2020-06-21,25.458907933564873,137.30990947108134,7014.554259435171
IE,Ireland,IRL,Europe,4904240.0,0.9969267401491293,0.9624430902723751,25725.60271010056,2020-03-15,2020-04-14,2020-07-08,14.357005459392411,104.72310292424835,8872.442791159168
IL,Israel,ISR,Asia,8519373.0,0.9964939142280392,1.003281491366711,16720.560197493927,2020-03-17,2020-04-06,2020-05-30,10.336736125827835,96.5284007092002,7735.035456510991
IM,Isle_of_Man,IMN,Europe,84589.0,0.9932423724189876,0.9955571709948442,328.31579378863785,2020-03-21,2020-04-09,2020-06-03,9.02564491352711,99.51037089292143,170.21753553973915
IN,India,IND,Asia,1366417756.0,0.9946573283463394,0.5176598223090166,322166.0661756159,2020-04-30,2020-05-28,2020-07-17,21.75688025726769,148.53259795914641,74940.11274465754
IQ,Iraq,IRQ,Asia,39309789.0,0.9419636005205327,0.3655916731848147,14909.770581599161,2020-04-18,2020-06-17,2020-09-22,54.41920304224105,168.91979107700357,1407.1663378050646
IR,Iran,IRN,Asia,82913893.0,0.9823483364581084,0.8676371522534234,166257.61731142015,2020-02-24,2020-04-15,2020-08-15,28.550985514374428,106.30050048608682,29689.413158016647
IS,Iceland,ISL,Europe,356991.0,0.981664392408284,0.9955165099224165,1813.1291465378797,2020-03-06,2020-03-24,2020-05-21,8.951964647142953,84.36623687846027,946.1404741941951
IT,Italy,ITA,Europe,60359546.0,0.9996550140751266,0.9742767333963224,237760.98931613303,2020-02-28,2020-04-01,2020-07-03,16.948171694428986,92.45806965060876,70208.6028036437
JE,Jersey,JEY,Europe,107796.0,0.9746893133741531,1.2802515641047962,231.42773076234377,2020-03-24,2020-04-05,2020-05-10,5.979965070047364,95.66765981765889,162.31515955566107
JM,Jamaica,JAM,America,2948277.0,0.9759033482217834,1.058094177816383,527.7683056351518,2020-04-07,2020-04-24,2020-05-26,11.939899463504291,114.90023317615261,215.21517112677574
JO,Jordan,JOR,Asia,10101697.0,0.8504776325650277,1.227170775461539,570.8834028649144,,2020-04-09,2020-04-10,28.650840988421244,100.21549786469772,101.59765622151853
JP,Japan,JPN,Asia,126860299.0,0.99943437149092,1.105736276969437,15139.621372747351,2020-04-03,2020-04-16,2020-05-11,10.087400580598914,107.38593672653512,7149.631629991886
KG,Kyrgyzstan,KGZ,Asia,6415851.0,0.978073904438374,0.7589560904158146,2159.3569943161947,2020-03-30,2020-05-05,2020-07-10,27.022381976327768,126.06607730454738,406.94163944632504
KN,Saint_Kitts_and_Nevis,KNA,America,52834.0,0.9870937009363112,0.9225558566287202,12.852493181791946,2020-03-24,2020-04-06,2020-05-04,8.077044717628386,97.00215419922276,7.272523611919504
KR,South_Korea,KOR,Asia,51225321.0,0.9683327231449026,1.1448453590833325,9938.709734034477,2020-02-22,2020-03-05,2020-04-01,8.391117234685874,65.18618094583184,5461.575036031845
KY,Cayman_Islands,CYM,America,64948.0,0.9070205018226922,0.8056438981203986,169.87299610234945,2020-03-09,2020-04-29,2020-09-03,28.003387181517375,120.026318185048,30.915494376825396
KZ,Kazakhstan,KAZ,Asia,18551428.0,0.9931927208157505,0.516704601998761,19404.289060179028,2020-03-31,2020-05-22,2020-09-12,32.50729225631672,143.47752261049158,3050.3391847907387
LB,Lebanon,LBN,Asia,6855709.0,0.8774563695329042,0.8951679362760936,1185.2523981151162,2020-03-17,2020-04-18,2020-06-04,35.94919484212707,109.27727437768662,168.72510485800328
LC,Saint_Lucia,LCA,America,182795.0,0.8136865948054717,1.1306528240237235,14.403815158535858,2020-03-19,2020-04-01,2020-04-23,12.785036155890252,92.31449169411613,5.52064188389481
LI,Liechtenstein,LIE,Europe,38378.0,0.9736751916126298,1.0357145705721182,75.99997909733446,2020-03-16,2020-03-25,2020-04-23,4.653847678671378,84.99391714202515,61.60947905934611
LK,Sri_Lanka,LKA,Asia,21323734.0,0.8106840301214514,1.263824784786924,1158.2753878940425,,2020-05-14,2020-05-15,23.357988332277646,135.01368219956476,251.57283942942883
LR,Liberia,LBR,Africa,4937374.0,0.972833199974428,1.499994473977962,180.4768553555772,,2020-04-27,2020-04-28,15.571612948778954,117.60377084428691,57.71139289553524
LT,Lithuania,LTU,Europe,2794184.0,0.9688820756198039,0.9632192013740604,1702.7721777173306,2020-03-12,2020-04-08,2020-06-06,16.418867984873174,98.68330678335376,518.1557558083427
LU,Luxembourg,LUX,Europe,613894.0,0.978134682013582,1.0548194338281838,3611.9926101215524,2020-03-15,2020-03-31,2020-05-23,7.877154712047808,91.46802712520852,2087.082930047295
LV,Latvia,LVA,Europe,1919968.0,0.9856694304913383,0.9579137413336698,1098.965637812676,2020-03-10,2020-04-08,2020-06-10,18.240840476204443,99.04720105893237,302.76973947523805
MA,Morocco,MAR,Africa,36471766.0,0.9982317829282505,0.8578881882306872,8917.41250444298,2020-04-01,2020-04-27,2020-06-14,19.670528117518945,117.76802829256994,2285.6920951685033
MC,Monaco,MCO,Europe,33085.0,0.9412281824367342,1.008548235742362,58.92486776780473,2020-03-09,2020-03-27,2020-05-13,8.889157235173126,86.69993178829235,30.932171080468006
MD,Moldova,MDA,Europe,4043258.0,0.9937906134970398,0.7766551205530267,9913.206844556149,2020-03-19,2020-05-03,2020-08-23,24.20117677745838,123.61636304608913,2079.887064854427
ME,Montenegro,MNE,Europe,622182.0,0.9979447570450583,0.9779735259687289,320.7799366588547,2020-03-22,2020-04-04,2020-05-06,7.546769900978746,94.80260913471093,191.34371177929478
MG,Madagascar,MDG,Africa,26969306.0,0.9985926778061617,0.9878807629032672,659.2756319818,2020-05-26,2020-05-30,2020-06-06,6.17001846663845,151.0855275187222,453.9256490178382
MK,North_Macedonia,MKD,Europe,2077132.0,0.9850289386245303,0.915428088729785,2250.469351449442,2020-03-14,2020-04-19,2020-07-10,20.769747280320296,109.6740002174806,547.4396849760608
ML,Mali,MLI,Africa,19658023.0,0.9695873120758244,0.9796597350509647,1185.8344730824438,2020-05-04,2020-05-14,2020-05-27,18.58730267198758,134.87148321081577,320.8842878354393
MN,Mongolia,MNG,Asia,3225166.0,0.9055432816580669,1.3403946035413048,120.54019625605699,2020-05-12,2020-05-18,2020-05-28,5.596576842068464,139.04094794848072,88.29376033247756
MP,Northern_Mariana_Islands,MNP,Oceania,57213.0,0.9188076719037332,0.6495739088534052,25.511228233062894,2020-03-18,2020-05-02,2020-07-25,33.17806912865848,123.04431147265129,3.930513104693249
MR,Mauritania,MRT,Africa,4525698.0,0.9934694619721315,0.6522314945468741,550.1990410727594,2020-05-18,2020-05-27,2020-06-16,6.856994863266185,148.37846880658054,352.40102376301024
MS,Montserrat,MSF,America,4991.0,0.9351554378898199,0.34732603850127924,24.678335688277414,2020-03-08,2020-04-21,2020-08-19,22.130545279228066,111.56773878847879,5.646719335028356
MT,Malta,MLT,Europe,493559.0,0.9881385373159397,1.1946410146208137,511.570295731758,2020-03-11,2020-04-03,2020-05-29,12.640758005571533,93.54483410775906,198.15557070654725
MU,Mauritius,MUS,Africa,1269670.0,0.9945975236656709,0.8146210949881688,386.8582081678527,2020-03-23,2020-04-05,2020-05-04,8.007942681023392,95.94123421049984,220.4357168904506
MV,Maldives,MDV,Asia,530957.0,0.9512039115510499,0.10194544796871965,15079.403746994154,2020-04-01,2020-07-04,2021-04-13,43.69269826321428,185.78041218333342,1769.7224273755473
MX,Mexico,MEX,America,127575529.0,0.9965927736295022,0.36060526288766676,299530.45904563845,2020-03-31,2020-06-04,2020-11-02,36.4493561508874,155.7352730963165,42058.129900198226
MY,Malaysia,MYS,Asia,31949789.0,0.978175818546805,0.9772210502680048,7793.236017199006,2020-03-12,2020-04-08,2020-05-27,20.34976249559493,98.54087745944048,1933.3051010583656
NC,New_Caledonia,NCL,Oceania,282757.0,0.9959442799692357,1.2417986974473292,10.238604485913458,2020-03-25,2020-03-28,2020-04-03,1.872995781381511,87.95551562989225,10.172571378897993
NE,Niger,NER,Africa,23310719.0,0.9991275876627727,1.499994473977962,634.5737663505067,2020-04-07,2020-04-11,2020-04-19,4.594046215614962,102.08103702635894,517.4603481502287
NG,Nigeria,NGA,Africa,200963603.0,0.99010881211044,0.9358550780493411,9671.21657524409,2020-05-10,2020-05-19,2020-06-01,12.20303733754993,140.06413798396073,3867.1204159790227
NI,Nicaragua,NIC,America,6545503.0,0.9942828258843796,0.662074407168374,1040.6685299115911,2020-05-22,2020-05-28,2020-06-13,4.337204019161632,149.42299782415543,870.885774915028
NL,Netherlands,NLD,Europe,17282163.0,0.999039057732938,0.9720176156871299,47260.46036472901,2020-03-09,2020-04-08,2020-06-29,15.848069954940787,99.21104276094393,14868.190541678297
NO,Norway,NOR,Europe,5328212.0,0.997275863136547,0.9915327134160062,8462.079422999625,2020-03-03,2020-03-30,2020-06-07,14.53884608064417,90.09190587644548,2884.82862818515
NP,Nepal,NPL,Asia,28608715.0,0.9971229266843872,0.18342241000037657,5893.500145362722,2020-05-23,2020-06-11,2020-07-18,14.110873119279821,162.94584370123863,2065.4551897897873
NZ,New_Zealand,NZL,Oceania,4783062.0,0.9997274282995018,1.0294599661836688,1077.6801506340807,2020-03-22,2020-04-01,2020-04-22,5.663166630745814,91.59525434145495,782.0869659028999
OM,Oman,OMN,Asia,4974992.0,0.98930489866456,0.3336635789442676,27753.33348304168,2020-03-25,2020-06-09,2020-12-23,39.79124524845588,161.23861615799336,3573.503118960131
PA,Panama,PAN,America,4246440.0,0.9910458857715787,0.8290909703363066,14710.258937943248,2020-03-12,2020-04-28,2020-08-28,24.496347875499325,119.2314319020841,3050.7045252269563
PE,Peru,PER,America,32510462.0,0.9991243449939544,0.40933847466682155,348904.75278121623,2020-03-25,2020-05-30,2020-12-02,32.019607832833906,150.84092708307392,55666.77875168481
PF,French_Polynesia,PYF,Oceania,279285.0,0.9858898184106017,1.0524722181958004,46.28557872795363,2020-03-21,2020-03-31,2020-04-23,7.074946592906468,91.29710523159017,28.985113770878765
PH,Philippines,PHL,Asia,108116622.0,0.9812178490500136,0.8199054334584541,19418.789988755263,2020-04-01,2020-04-30,2020-06-16,27.107162217700978,121.45213458185762,3648.2566888204556
PK,Pakistan,PAK,Asia,216565317.0,0.9956317421591638,0.3774597558067327,170465.84475180498,2020-04-12,2020-06-02,2020-09-15,33.52421471933562,154.09156008194412,25996.665827944882
PL,Poland,POL,Europe,37972812.0,0.9914937482367866,0.825292601681092,27595.75377475914,2020-03-20,2020-04-27,2020-07-18,24.06955127129666,118.2441882682969,5821.611971688228
PR,Puerto_Rico,PRI,America,2933404.0,0.9812067002215561,0.6721969727185927,5019.36207530759,2020-03-19,2020-05-09,2020-09-05,29.280210091347087,130.00937464667322,874.4230069656448
PS,Palestine,PSE,Asia,4981422.0,0.9489439229028842,1.1186019664583877,416.33601556126666,2020-04-04,2020-04-20,2020-05-12,18.378192043563143,110.57834972196143,113.85044398989677
PT,Portugal,PRT,Europe,10276617.0,0.9907187616711214,0.9652510462765498,32749.141250955014,2020-03-11,2020-04-13,2020-07-10,16.89169685626617,103.51369707179332,9700.240453534436
PY,Paraguay,PRY,America,7044639.0,0.9516565058036651,0.4788101008052959,1884.433330699569,2020-04-22,2020-05-27,2020-07-26,27.64108660162057,147.7677201076643,347.3163100698082
QA,Qatar,QAT,Asia,2832071.0,0.9987023813485373,0.29296351792423897,173089.72821065763,2020-03-16,2020-06-09,2021-03-16,37.80114797404813,161.47106401276483,23446.79327768078
RO,Romania,ROU,Europe,19414458.0,0.9985149459859091,0.8932520967410467,21013.58467549023,2020-03-18,2020-04-21,2020-07-10,19.83105883972484,112.09633130323537,5344.998952321267
RS,Serbia,SRB,Europe,6963764.0,0.9976330043680495,0.9548200815786226,11812.547055157858,2020-03-20,2020-04-17,2020-06-27,14.952187767375335,107.71479791325504,3923.4867219764583
RU,Russia,RUS,Europe,145872260.0,0.9993359175667758,0.5722371553035241,662947.1652880025,2020-03-31,2020-05-18,2020-09-22,24.153241727541754,138.73962537111117,139365.2688190544
SA,Saudi_Arabia,SAU,Asia,34268529.0,0.9968079339104874,0.28836324221641435,277671.900975506,2020-03-24,2020-06-09,2021-01-03,38.975145889585534,161.10265829331314,36493.08354285144
SC,Seychelles,SYC,Africa,97741.0,0.960239084969716,0.9440014085024111,7.869237653316972,2020-03-14,2020-03-25,2020-04-15,10.33181363489635,85.3665828957246,3.6406038008350867
SD,Sudan,SDN,Africa,42813237.0,0.9966036521193192,0.6436518580492988,6799.150285293707,2020-05-05,2020-05-23,2020-06-25,14.038949811888063,144.29919215015968,2393.2617711566413
SE,Sweden,SWE,Europe,10230185.0,0.997154367660809,0.7636424439914499,48464.71610873593,2020-03-04,2020-04-28,2020-09-20,28.26950517027619,118.86768740102418,8738.418470214401
SG,Singapore,SGP,Asia,5804343.0,0.987996890140566,0.43190448582289137,77245.24985642027,2020-03-14,2020-05-22,2020-12-10,33.58624675223047,143.47473950343382,11758.625934254347
SI,Slovenia,SVN,Europe,2080908.0,0.9994486817257862,0.9883273778710882,1381.8440289047844,2020-03-11,2020-03-31,2020-05-16,11.410687178779284,90.50702722228755,586.4698698803116
SK,Slovakia,SVK,Europe,5450421.0,0.9783916026935428,0.893876105520831,1669.135119268752,2020-03-17,2020-04-10,2020-05-28,16.45221904708917,101.34485664648334,506.93325496030775
SL,Sierra_Leone,SLE,Africa,7813207.0,0.9992258488252942,0.5504642250029027,1455.6544783295317,2020-05-02,2020-05-25,2020-07-05,18.52154671570645,146.00861145409627,395.24735029221415
SM,San_Marino,SMR,Europe,34453.0,0.9934353390175216,0.9296158122906364,699.5209264818109,2020-02-23,2020-04-07,2020-08-23,19.93432565818858,97.49029804584052,177.01038584451555
SN,Senegal,SEN,Africa,16296362.0,0.9959779951877804,0.8798042283447286,3794.1882405171755,2020-04-24,2020-05-13,2020-06-21,13.690574421034729,134.3294608831602,1366.5553111485972
SO,Somalia,SOM,Africa,15442906.0,0.9950522913090625,0.8475753960605591,2136.0088787891345,2020-04-21,2020-05-09,2020-06-10,15.09558890749648,130.21812369222118,703.1796927244296
SS,South_Sudan,SSD,Africa,11062114.0,0.9741670202963618,0.17424780070285562,4955.996145009978,2020-05-13,2020-06-15,2020-08-19,21.756494385025754,166.89768797039994,1152.9929652649112
ST,Sao_Tome_and_Principe,STP,Africa,215048.0,0.9397489336704303,0.7719764201789705,562.9335523884008,2020-04-21,2020-05-18,2020-07-29,13.704479116183435,138.78389449144598,202.64850239759147
SV,El_Salvador,SLV,America,6453550.0,0.9927947700773029,0.20747679891470944,10757.815431956236,2020-04-14,2020-06-20,2020-11-15,39.80515029403855,171.87700750972368,1384.6186791260461
SX,Sint_Maarten,SXM,America,42389.0,0.9583538438148036,1.1444161531419357,52.4284805271868,2020-04-02,2020-04-12,2020-05-10,5.065301996911362,102.51803580948042,40.584584846863144
SZ,Eswatini,SWZ,Africa,1148133.0,0.9857819206407963,0.9184582185471438,296.9261749823271,2020-04-21,2020-05-10,2020-06-17,12.929045809512406,130.91326282015268,112.72075491266011
TC,Turks_and_Caicos_islands,TCA,America,38194.0,0.9797246827319929,0.9637710021479322,10.079454240307843,2020-03-24,2020-04-07,2020-05-07,8.866273738671195,98.14082828896986,5.297127626293635
TD,Chad,TCD,Africa,15946882.0,0.9932780585225265,0.9755739930701708,748.7167315006861,2020-05-08,2020-05-16,2020-05-29,8.907465200676118,137.23966044223357,392.14967948777746
TG,Togo,TGO,Africa,8082359.0,0.9682918742961872,1.499994473977962,275.23910922301746,2020-05-13,2020-05-19,2020-05-28,6.3345314164719255,139.7072557355822,185.9235751069521
TH,Thailand,THA,Asia,69625581.0,0.9949663203642207,1.1058171186232884,2693.4187590952033,2020-03-24,2020-03-31,2020-04-11,7.720363658560889,90.72012827394283,1579.8339604947887
TJ,Tajikistan,TJK,Asia,9321023.0,0.9948136348830906,0.49780956781977914,6709.105968944059,2020-05-03,2020-05-27,2020-07-21,13.88734714013405,148.11833134047865,2385.8296651298347
TL,Timor_Leste,TLS,Asia,1293120.0,0.998899749420359,0.9042115325462255,25.594516669885568,2020-04-17,2020-04-20,2020-04-26,3.540288597462588,111.03061268157809,23.10709142687867
TN,Tunisia,TUN,Africa,11694721.0,0.9945432778883133,1.1260906850246406,936.8694848736048,2020-03-26,2020-04-06,2020-04-25,9.19867091059443,96.55715917300397,478.21109061040437
TR,Turkey,TUR,Europe,82003882.0,0.9976583768534851,0.955775618443633,168170.37362689542,2020-03-21,2020-04-18,2020-07-02,15.056501191544474,109.19788417420277,55496.85847581139
TT,Trinidad_and_Tobago,TTO,America,1394969.0,0.9946118993073083,1.035983149383477,109.35092366428125,2020-03-19,2020-03-27,2020-04-12,6.150617367410393,87.31425519641544,75.45381581962026
UA,Ukraine,UKR,Europe,43993643.0,0.9986648227140554,0.7710972814641065,29032.282727256952,2020-04-01,2020-05-05,2020-07-17,21.4018208201111,125.78821468157804,6861.8278151982595
UK,United_Kingdom,GBR,Europe,66647112.0,0.9993613820283129,0.8912009898670035,281595.44896215765,2020-03-11,2020-04-19,2020-08-05,20.06923423607674,110.4671421074903,70798.57429170475
US,United_States_of_America,USA,America,329064917.0,0.9939562716839753,0.8925138472977711,1932400.4306249502,2020-03-13,2020-04-23,2020-08-15,20.073965007930926,113.53525474830658,485700.45718163205
UY,Uruguay,URY,America,3461731.0,0.9824984752461488,0.9514123403020984,808.422199882645,2020-03-11,2020-04-08,2020-05-28,21.530963698621072,98.95558934609817,189.98216031673024
UZ,Uzbekistan,UZB,Asia,32981715.0,0.9612779818669422,0.9400036151448588,3646.0346099384888,2020-04-08,2020-04-28,2020-05-28,19.629614022100117,118.54748401683585,936.266526602627
VA,Holy_See,VAT,Europe,815.0,0.9220550537351828,0.882595010304608,12.463247436899476,2020-02-23,2020-04-06,2020-08-19,20.325495965779094,97.28587645000725,3.095951224341486
VC,Saint_Vincent_and_the_Grenadines,VCT,America,110593.0,0.9134966018685289,1.1613898778757412,18.450799199116236,2020-03-24,2020-04-13,2020-05-19,15.636498461916672,103.9075254893721,5.87863355574462
VE,Venezuela,VEN,America,28515829.0,0.9972264765797055,1.2001322997050077,1088.0943235825935,2020-05-20,2020-05-25,2020-06-04,5.080583693298668,146.4324362022044,841.0730316243869
VG,British_Virgin_Islands,VGB,America,30033.0,0.9606524750226728,0.73012686218144,8.217749970261847,2020-03-28,2020-04-27,2020-06-20,22.52230832740971,117.52092565022637,1.848767075263567
VI,United_States_Virgin_Islands,VIR,America,104579.0,0.9669213926065724,0.7833593123991354,48.87375905247829,2020-03-17,2020-04-17,2020-06-19,20.170511108238582,107.94543114092703,12.230366375340182
XK,Kosovo,XKX,Europe,1798506.0,0.994462412244413,0.934180222704659,1120.4629045601237,2020-03-21,2020-04-18,2020-06-18,16.97507818529232,108.85312673996228,330.460600099321
ZA,South_Africa,ZAF,Africa,58558267.0,0.97831084522844,0.03556295905467082,776008.4163051511,2020-04-05,2020-09-11,2021-11-02,81.83145680647473,254.96895617716035,48963.95321141935
ZM,Zambia,ZMB,Africa,17861034.0,0.995187799112518,1.0854062089657524,935.9234676067676,2020-05-11,2020-05-17,2020-05-30,5.6634587903000355,138.28135520653305,680.4725420532166
